…
png(filename="../figs/2_mobility_csra.png", height=3, width=4, units="in", res=300)
mobility_csra
dev.off()

## quartz_off_screen 
##                 2

No obvious patterns – conjugative plasmids in Legionella may be more likely to have CsrA than Non-Mobilizable, but these pattenrs are not reproduced in other Genera and are more likely to be due to differential sampling within Legionellaceae.

(compass_totals <- compass %>% group_by(Family) %>% count() %>% arrange(-n))

## # A tibble: 191 × 2
## # Groups:   Family [191]
##    Family                 n
##    <chr>              <int>
##  1 Enterobacteriaceae  3621
##  2 Bacillaceae          617
##  3 Lactobacillaceae     527
##  4 Borreliaceae         503
##  5 Staphylococcaceae    471
##  6 Rhodobacteraceae     382
##  7 Moraxellaceae        372
##  8 Rhizobiaceae         361
##  9 Streptococcaceae     244
## 10 Enterococcaceae      232
## # … with 181 more rows
…
